<?xml version="1.0" encoding="UTF-8" standalone="no"?>
<!-- Created with Inkscape (http://www.inkscape.org/) -->

<svg
   xmlns:osb="http://www.openswatchbook.org/uri/2009/osb"
   xmlns:dc="http://purl.org/dc/elements/1.1/"
   xmlns:cc="http://creativecommons.org/ns#"
   xmlns:rdf="http://www.w3.org/1999/02/22-rdf-syntax-ns#"
   xmlns:svg="http://www.w3.org/2000/svg"
   xmlns="http://www.w3.org/2000/svg"
   xmlns:sodipodi="http://sodipodi.sourceforge.net/DTD/sodipodi-0.dtd"
   xmlns:inkscape="http://www.inkscape.org/namespaces/inkscape"
   width="129.34476mm"
   height="129.34476mm"
   viewBox="0 0 129.34474 129.34475"
   version="1.1"
   id="svg8"
   sodipodi:docname="toilet_path_icon.svg"
   inkscape:version="0.92.2 2405546, 2018-03-11">
  <defs
     id="defs2">
    <linearGradient
       id="linearGradient857"
       osb:paint="solid">
      <stop
         style="stop-color:#000000;stop-opacity:1;"
         offset="0"
         id="stop855" />
    </linearGradient>
    <inkscape:path-effect
       effect="spiro"
       id="path-effect843"
       is_visible="true" />
    <inkscape:path-effect
       effect="spiro"
       id="path-effect839"
       is_visible="true" />
    <inkscape:path-effect
       effect="spiro"
       id="path-effect831"
       is_visible="true" />
  </defs>
  <sodipodi:namedview
     id="base"
     pagecolor="#ffffff"
     bordercolor="#666666"
     borderopacity="1.0"
     inkscape:pageopacity="0.0"
     inkscape:pageshadow="2"
     inkscape:zoom="1.979899"
     inkscape:cx="196.22946"
     inkscape:cy="257.99783"
     inkscape:document-units="mm"
     inkscape:current-layer="layer1"
     showgrid="false"
     showguides="false"
     inkscape:window-width="1914"
     inkscape:window-height="1023"
     inkscape:window-x="0"
     inkscape:window-y="24"
     inkscape:window-maximized="0"
     inkscape:pagecheckerboard="true"
     fit-margin-top="-2.1"
     fit-margin-left="0"
     fit-margin-right="0"
     fit-margin-bottom="0" />
  <metadata
     id="metadata5">
    <rdf:RDF>
      <cc:Work
         rdf:about="">
        <dc:format>image/svg+xml</dc:format>
        <dc:type
           rdf:resource="http://purl.org/dc/dcmitype/StillImage" />
        <dc:title></dc:title>
      </cc:Work>
    </rdf:RDF>
  </metadata>
  <g
     inkscape:label="Layer 1"
     inkscape:groupmode="layer"
     id="layer1"
     transform="translate(-62.099797,-63.863537)">
    <path
       style="color:#000000;font-style:normal;font-variant:normal;font-weight:normal;font-stretch:normal;font-size:medium;line-height:normal;font-family:sans-serif;font-variant-ligatures:normal;font-variant-position:normal;font-variant-caps:normal;font-variant-numeric:normal;font-variant-alternates:normal;font-feature-settings:normal;text-indent:0;text-align:start;text-decoration:none;text-decoration-line:none;text-decoration-style:solid;text-decoration-color:#000000;letter-spacing:normal;word-spacing:normal;text-transform:none;writing-mode:lr-tb;direction:ltr;text-orientation:mixed;dominant-baseline:auto;baseline-shift:baseline;text-anchor:start;white-space:normal;shape-padding:0;clip-rule:nonzero;display:inline;overflow:visible;visibility:visible;opacity:1;isolation:auto;mix-blend-mode:normal;color-interpolation:sRGB;color-interpolation-filters:linearRGB;solid-color:#000000;solid-opacity:1;vector-effect:none;fill:#000000;fill-opacity:1;fill-rule:nonzero;stroke:none;stroke-width:8;stroke-linecap:round;stroke-linejoin:round;stroke-miterlimit:4;stroke-dasharray:none;stroke-dashoffset:0;stroke-opacity:1;color-rendering:auto;image-rendering:auto;shape-rendering:auto;text-rendering:auto;enable-background:accumulate"
       d="m 102.5918,63.898438 c -3.009637,-0.09784 -5.91376,0.0033 -8.429691,0.458984 -1.257965,0.227833 -2.417736,0.514643 -3.61914,1.132812 -1.201405,0.61817 -2.86034,1.879618 -3.19336,4.142578 -1.445411,9.82196 2.211476,19.580681 5.03711,28.298829 2.825633,8.718149 4.531213,16.104529 2.511719,20.453129 l -1.123047,2.41992 -1.476563,-2.66992 a 4.0004,4.0004 0 0 0 -7.054687,0.0996 l -1.388672,2.68945 -1.394531,-2.69336 a 4.0004,4.0004 0 0 0 -6.642579,-0.69922 l -3.46289,4.21875 a 4.0004,4.0004 0 0 0 5.773437,5.51172 l 2.179688,4.20898 a 4.0004,4.0004 0 0 0 7.107422,-0.004 l 1.503906,-2.91211 1.664062,3.01367 a 4.0004,4.0004 0 0 0 7.111328,-0.2168 c 0.424228,1.39361 1.025542,2.81118 1.919922,4.26758 3.379606,5.50331 8.243496,10.16195 12.160156,14.99024 3.90199,4.81019 6.74963,9.53311 7.08984,14.84765 0.10473,4.45592 -1.51182,7.78471 -3.43359,10.85156 -0.96624,1.54198 -2.00334,2.96543 -2.91602,4.48243 -0.91267,1.51699 -1.9306,3.21965 -1.76562,5.7246 a 4.0004,4.0004 0 0 0 2.55078,3.46876 c 3.09965,1.19757 7.20374,1.84206 12.22461,2.36132 5.02087,0.51926 10.82459,0.8128 16.62109,0.85742 5.79651,0.0446 11.57198,-0.15929 16.5586,-0.66015 4.98662,-0.50086 9.02847,-1.12227 12.23437,-2.70313 a 4.0004,4.0004 0 0 0 0.40625,-0.23046 c 0.50169,-0.32496 1.28925,-0.87955 1.77539,-2.15235 0.48614,-1.2728 0.14107,-2.88577 -0.29492,-3.64844 -0.87198,-1.52532 -1.40599,-1.57224 -1.83398,-1.875 -0.85599,-0.6055 -1.60838,-1.0783 -2.45899,-1.89453 -1.41586,-1.35862 -3.00866,-3.58974 -3.67382,-8.05078 2.71745,-1.0075 5.06408,-2.21676 6.6582,-3.93164 2.24358,-2.41354 3.10139,-5.86726 2.26758,-8.7207 -0.79876,-2.73348 -2.67069,-4.79414 -5.07813,-6.14844 3.31237,-1.88816 6.25359,-4.26593 8.52149,-7.22852 4.90695,-6.41003 6.50807,-15.337 3.07031,-24.76562 a 4.0004,4.0004 0 0 0 -0.97461,-1.50195 c -1.18716,-1.15019 -2.09363,-1.26626 -2.88672,-1.43946 -0.79309,-0.17319 -1.54586,-0.24451 -2.375,-0.29101 -1.65829,-0.093 -3.60338,-0.0552 -5.86914,0.0332 -4.53153,0.17689 -10.29239,0.57769 -16.39844,0.80859 -12.2121,0.46181 -25.99944,-0.19031 -31.96289,-3.36132 -0.18517,-0.0985 -0.50912,-0.35126 -0.89844,-1.35157 -0.38931,-1.0003 -0.71078,-2.62195 -0.83984,-4.60546 -0.25811,-3.96703 0.19215,-9.32446 0.83984,-14.712896 0.64769,-5.388438 1.47302,-10.81752 1.85157,-15.351562 0.18927,-2.267021 0.27957,-4.297341 0.11523,-6.171875 -0.16434,-1.874534 -0.2885,-3.89969 -2.44922,-5.716797 -2.24458,-1.887638 -4.39193,-2.1935 -7.08594,-2.708984 -2.694,-0.515484 -5.7638,-0.825986 -8.77343,-0.923828 z m -0.25977,7.99414 c 2.62008,0.08518 5.36846,0.373645 7.5293,0.78711 1.86034,0.355967 2.86318,0.887301 2.96094,0.839843 0.0464,0.140955 0.0862,0.163525 0.10937,0.427735 0.0918,1.047202 0.0533,2.766226 -0.11719,4.808593 -0.34103,4.084735 -1.15534,9.512133 -1.82226,15.060547 -0.66692,5.548415 -1.2067,11.209634 -0.88281,16.187504 0.16194,2.48893 0.52613,4.82031 1.36914,6.98632 0.84301,2.16602 2.29771,4.29265 4.59765,5.51563 9.40385,5.00042 23.49054,4.76675 36.01953,4.29297 6.2645,-0.23689 12.09156,-0.64197 16.41016,-0.81055 2.02305,-0.079 3.62938,-0.0878 4.78516,-0.0371 1.72806,6.26559 0.60645,11.19878 -2.41407,15.14453 -3.34885,4.37466 -9.21956,7.55787 -16.18164,8.5293 -13.92415,1.94286 -31.62059,-4.63136 -40.60937,-26.14648 -1.1248,-2.69226 -3.598,-3.90094 -5.7793,-4.29297 -1.80906,-0.32514 -3.66146,-0.0573 -5.45898,0.63867 2.60513,-7.77025 -0.20237,-16.18561 -2.851566,-24.359376 -2.671951,-8.24398 -5.228881,-16.422407 -4.757813,-23.142578 0.165368,-0.04073 0.149511,-0.05751 0.34961,-0.09375 1.586199,-0.28728 4.124063,-0.421116 6.744139,-0.335938 z m 4.56055,55.166012 c 0.0923,0.0166 0.0484,0.003 0.0723,0.0117 10.32251,24.07749 31.57455,32.88703 48.83594,30.47852 0.0893,-0.0125 0.1707,-0.0456 0.25977,-0.0586 l 0.44726,11.32422 a 4.0004,4.0004 0 0 0 0.16602,1.72461 c 0.46593,6.27482 2.51672,10.64648 4.80273,13.5 -1.16605,0.19239 -2.2157,0.40887 -3.57031,0.54492 -4.58401,0.46042 -10.13329,0.66199 -15.69922,0.61914 -5.56593,-0.0428 -11.16251,-0.3287 -15.85937,-0.81445 -2.27456,-0.23523 -4.3398,-0.54496 -6.07032,-0.86523 0.59535,-0.89925 1.15958,-1.73158 1.9336,-2.9668 2.27363,-3.62838 4.83992,-8.77494 4.65625,-15.39258 a 4.0004,4.0004 0 0 0 -0.006,-0.13086 c -0.47483,-7.86099 -4.55716,-14.14245 -8.87305,-19.46289 -4.31589,-5.32043 -8.97434,-9.93685 -11.55469,-14.13867 -1.32808,-2.16264 -1.37456,-3.36678 -1.32031,-3.71875 0.0542,-0.35197 0.0336,-0.27889 0.35938,-0.45117 0.32573,-0.17228 1.03145,-0.27294 1.41992,-0.20313 z m 57.27344,32.97461 c 1.13094,0.5279 1.84931,1.23842 1.93945,1.54688 0.0824,0.28188 0.24127,0.2886 -0.44727,1.0293 -0.2366,0.25452 -0.82167,0.6022 -1.35351,0.93359 z"
       id="path827"
       inkscape:connector-curvature="0" />
  </g>
</svg>
